{
    "phrases": {
        "dashboard": {
            "tabs": {
                "general": {
                    "name": "General",
                    
                    "online": {
                        "title": "Online",
                        "data": ":online:/:max:"
                    },
                    "totalMoney": {
                        "title": "Dinero Total"
                    },
                    "jobDistribution": {
                        "title": "Distribucion de Trabajos"
                    },
                    "richestPlayer": {
                        "title": "Jugador mas Rico",
                        "economy": ":percentage:% de economia"
                    }
                },
                "economy": {
                    "name": "Grafica de Economia",
                    "noData": "Sin Datos",
                    "days": [
                        "Today",
                        "1 day ago",
                        "2 days ago",
                        "3 days ago",
                        "4 days ago",
                        "5 days ago",
                        "6 days ago"
                    ]
                }
            },
            "favouriteJobs": {
                "title": "Trabajos Favoritos",
                "none": "No hay trabajos Favoritos"
            },
            "onlineStaff": {
                "title": "Staff Online",
                "none": "No hay Staff Online"
            }
        },
        "jobs": {
            "top": {
                "search": "Buscar trabajo por nombre",
                "sort": {
                    "default": "Orden Preterminado",
                    "alphabetically": "Alfabetico",
                    "highestSalary": "Salario mas Alto",
                    "lowestSalary": "Salario mas Bajo",
                    "mostPeople": "Mas usado",
                    "leastPeople": "Menos usado"
                },
                "showRecentJobs": "Mostrar Trabajos Recientes",
                "showFavouriteJobs": "Mostrar Trabajos Favoritos"
            },
            "slideout": {
                "tabs": {
                    "description": "DESCRIPCION",
                    "weapons": "ARMAS",
                    "ranks": "RANGOS"
                },
                "levelRequirement": "Nivel: :level:",
                "prestigeRequirement": "Prestigio: :prestige:",
                "donatorJob": "Tranajo Donador!",
                "button": {
                    "become": "SOLO NPC",
                    "areThisJob": "TIENES ESTE TRABAJO",
                    "jobIsFull": "TRABAJO LLENO",
                    "customCheckFailed": "CHECK FAILED",
                    "tooLowLevel": "NIVEL BAJO",
                    "tooLowPrestige": "PRESTIGIO BAJO"
                },
                "anHour": "/h",
                "ranks": {
                    "title": "Rangos que pueden accesar este job"
                }
            },
            "favouriteJobs": "Trabajos Favoritos",
            "recentJobs": "Trabajos Recientes",
            "salary": "Salario: :money:"
        },
        "items": {
            "tabs": {
                "entities": "ENTIDADES",
                "weapons": "ARMA",
                "shipments": "ARMAS",
                "ammo": "MUNICION",
                "vehicles": "VEHICULOS",
                "food": "COMIDA"
            },
            "food": {
                "categoryName": "Comida"
            },
            "vehicles": {
                "categoryName": "Vehiculos"  
            },
            "top": {
                "search": "Buscar por Nombre",
                "sort": {
                    "default": "Orden Preterminado",
                    "alphabetically": "Alfabetico",
                    "highestPrice": "Precio mas Alto",
                    "lowestPrice": "Precio mas Bajo"
                },
                "showFavourite": "Mostrar Favorito"
            },
            "favourites": "Favoritos"
        },
        "options": {
            "general": {
                "name": "General",
                
                "dropMoney": {
                    "name": "Soltar Dinero",
                    "desc": "Cantidad de Dinero a Soltar",
                    "placeholder": "$1000"
                },
                "giveMoney": {
                    "name": "Dar Dinero",
                    "desc": "Dar Dinero ala persona enfrente",
                    "placeholder": "$1000"
                },
                "changeName": {
                    "name": "Cambiar Nombre",
                    "desc": "Escribe tu nuevo nombre",
                    "placeholder": "Nombre"
                },
                "changeJobTitle": {
                    "name": "Cambiar Nombre de Trabajo",
                    "desc": "Escribe el nombre de tu Trabajo",
                    "placeholder": "Nombre de Trabajo"
                },
                "requestGunLicense": {
                    "name": "Predir Licencia (Desabilitado)"
                },
                "sellAllDoors": {
                    "name": "Vender todas las Puertas"
                },
                "dropWeapon": {
                    "name": "Soltar Arma"
                },
                "cheque": {
                    "name": "Cheque",
                    "desc": "Da un cheque a un jugador",
                    "amount": "$1000"
                }
            },
            "mayor": {
                "name": "Alcalde",
                
                "startLockdown": { 
                    "name": "Empezar Lockdown"
                },
                "stopLockdown": {
                    "name": "Terminar Lockdown"
                },
                "giveLicense": {
                    "name": "Dar Licencia"
                },
                "addLaw": {
                    "name": "Añadir Ley",
                    "desc": "Pon una nueva ley",
                    "placeholder": "Ley"
                },
                "removeLaw": {
                    "name": "Quitar Ley",
                    "desc": "Remover Ley",
                    "placeholder": "Ley"
                },
                "resetLaws": {
                    "name": "Resetear Leyes"
                },
                "placeLawboard": {
                    "name": "Cartel de Leyes"
                },
                "broadcastToCity": {
                    "name": "Retrasmicion a la Ciudad",
                    "desc": "Que mensaje quieres Retrasmitir?",
                    "placeholder": "Mensaje"
                },
                "startLottery": {
                    "name": "Empezar Loteria",
                    "desc": "Cuanto dinero quieres apostar a la loteria?",
                    "placeholder": "$1000"
                }
            },
            "police": {
                "name": "Policia",
                
                "wanted": {
                    "name": "Hacer Buscado",
                    "desc": "Escribe la razon y selecciona el jugador",
                    "placeholder": "Razon"
                },
                "warrant": {
                    "name": "Orden de Cateo",
                    "desc": "Escribe la razon y selecciona el jugador",
                    "placeholder": "Razon"
                },
                "unwarrant": {
                    "name": "Quitar Orden",
                    "desc": "Selecciona jugador"
                }
            }
        }
    }
}
